{
    "$schema": "http://json-schema.org/draft-07/schema#",
    "$id": "https://w3id.org/ieee/ieee-1752-schema/schema-id.json",
    "title": "Schema Identifier",
    "description": "This schema represents a JSON Schema identifier.",
    "type": "object",
    "properties": {
        "namespace": {
            "description": "The namespace of the schema. A namespace serves to disambiguate schemas with conflicting names.",
            "type": "string"
        },
        "name": {
            "description": "The name of the schema.",
            "type": "string"
        },
        "version": {
            "description": "The version of the schema, e.g. 1.0.",
            "type": "string"
        }
    },
    "required": [
        "namespace",
        "name",
        "version"
    ]
}
