{
    "items": [
        {
            "question": {
                "label": "1",
                "text": "Have you ever taken an over-the-counter medicine to help you sleep? (Please select one below)"
            },
            "answers": [ ],
            "asked_date_time": "2019-11-05T07:24:00Z"
        },
        {
            "question": {
                "label": "2",
                "text": "Do you keep track of your sleep patterns? (Please select one below)"
            },
            "answers": [ ]
        },
        {
            "question": {
                "label": "3",
                "text": "Do you work night shifts?"
            },
            "answers": [ ]
        },
        {
            "question": {
                "label": "3.a",
                "text": "When did you start working nights? (Answer is a date that can be partial)"
            },
            "answers": [ ]
        },
        {
            "question": {
                "label": "4",
                "text": "Do you use electronic gadgets such as e-book readers, mobile phones, video game machines etc. when having difficulty in falling sleep? (Please select one below)"
            },
            "answers": [ ]
        }
    ],
    "delivery_details": {
        "start_date_time": "2019-11-05T07:24:00Z",
        "end_date_time": "2019-11-05T07:24:55Z",
        "end_status": "missed"
    }
}
















