{
    "$schema": "http://json-schema.org/draft-07/schema#",
    "$id": "https://w3id.org/ieee/ieee-1752-schema/duration-unit-value.json",
    "title": "Unit of Duration and Value",
    "description": "This schema represents a duration or length of time.",
    "type": "object",
    "allOf": [
        {
            "$ref": "unit-value-0.1.json"
        },
        {
            "properties": {
                "unit": {
                    "references": [
                        {
                            "description": "The unit of measure of the element. Basic unit is second (s). Allowed values are drawn from the Time Units Common Synonyms (non-UCUM). The valid UCUM code is different for second (s), month (mo) and year (a).",
                            "url": "http://download.hl7.de/documents/ucum/ucumdata.html"
                        }
                    ],
                    "enum": [
                        "ps",
                        "ns",
                        "us",
                        "ms",
                        "sec",
                        "min",
                        "h",
                        "d",
                        "wk",
                        "Mo",
                        "yr"
                    ]
                }
            }
        }
    ]
}
