{
    "$schema": "http://json-schema.org/draft-07/schema#",
    "$id": "https://w3id.org/ieee/ieee-1752-schema/kcal-unit-value.json",
    "title": "Value of Kcal (Unit of Measure)",
    "description": "This schema represents an amount (value) of kilocalories (unit of measure).",
    "type": "object",
    "allOf": [
        {
            "$ref": "unit-value-0.1.json"
        },
        {
            "properties": {
                "unit": {
                    "references": [
                        {
                            "description": "The unit of measure of the element. The allowed value is kcal. This is not a standard (see http://unitsofmeasure.org/ucum.html#para-43), but it is the one commonly and widely used.",
                            "url": "http://unitsofmeasure.org/ucum.html#datyp2apdxatblxmp"
                        }
                    ],
                    "enum": [
                        "kcal"
                    ]
                }
            }
        }
    ]
}
