{
    "items": [
        {
            "question": {
                "label": "1",
                "text": "Indicate your level of sleepiness today during the day time (Please select one below)"
            },
            "answers": [
                {
                    "code": 0,
                    "value": "Extremely sleepy"
                }
            ],
            "asked_date_time": "2019-11-05T07:24:00Z",
            "answered_date_time": "2019-11-05T07:24:05Z"
        },
        {
            "question": {
                "label": "2",
                "text": "Today, were you unable to focus on your tasks during daytime? (Please select one below)"
            },
            "answers": [
                {
                    "code": 1,
                    "value": "Frequently"
                }
            ],
            "asked_date_time": "2019-11-05T07:24:10Z",
            "answered_date_time": "2019-11-05T07:24:15Z"
        },
        {
            "question": {
                "label": "3",
                "text": "Today, did you fall asleep in any of the following situations? (Please select all the ones that apply to you)"
            },
            "answers": [
                {
                    "code": "c",
                    "value": "During work in the office"
                },
                {
                    "code": "e",
                    "value": "Watching TV"
                }
            ],
            "asked_date_time": "2019-11-05T07:24:20Z",
            "answered_date_time": "2019-11-05T07:24:25Z"
        },
        {
            "question": {
                "label": "4",
                "text": "In the last 7 days, did you have difficulty participating in sport activities because you were too tired or felt sleepy? (Please select one below)"
            },
            "answers": [
                {
                    "code": 4,
                    "value": "Never"
                }
            ],
            "asked_date_time": "2019-11-05T07:24:40Z",
            "answered_date_time": "2019-11-05T07:24:45Z"
        },
        {
            "question": {
                "label": "5",
                "text": "In the last 7 days, did you have difficulty engaging with family or friends because you were too tired or felt sleepy? (Please select one below)"
            },
            "answers": [
                {
                    "code": 2,
                    "value": "Occasionally"
                }
            ],
            "asked_date_time": "2019-11-05T07:24:50Z",
            "answered_date_time": "2019-11-05T07:24:55Z"
        }
    ],
    "delivery_details": {
        "start_date_time": "2019-11-05T07:24:00Z",
        "end_date_time": "2019-11-05T07:24:55Z",
        "end_status": "completed"
    }
}