{
    "light_sleep_duration": {
        "value": 250,
        "unit": "min"
    },
    "total_sleep_time": {
        "value": 454,
        "unit": "min"
    },
    "light_sleep_percentage": {
        "value": 55,
        "unit": "%"
    },
    "effective_time_frame": {
        "time_interval": {
            "start_date_time": "2019-02-05T22:00:00Z",
            "end_date_time": "2019-02-11T06:00:00Z"
        }
    },
    "descriptive_statistic": "average",
    "descriptive_statistic_denominator": "d"
}
