{
    "effective_time_frame": {
        "time_interval": {
            "start_date_time": "2019-02-17T22:00:00Z",
            "end_date_time": "2019-02-18T06:30:00Z"
        }
    },
    "time_in_bed": {
        "value": 8.5,
        "unit": "h"
    },
    "is_main_sleep": true
}
