{
    "$schema": "http://json-schema.org/draft-07/schema#",

    "description": "This schema models an example survey to assess snoring that shows how to use generic survey schemas to model question and answer pairs of various types. This survey is neither a validated instrument nor a proposed one.",
    "type": "object",

    "definitions": {
        "survey": {
            "$ref": "survey-0.1.json"
        },
        "survey_item": {
            "$ref": "survey-item-0.1.json"
        },
        "survey_categorical_answer": {
            "$ref": "survey-categorical-answer-0.1.json"
        },
        "survey_categorical_answer_item": {
            "description": "A survey item that has one categorical answer.",
            "allOf": [
                {
                    "$ref": "#/definitions/survey_item"
                },
                {
                    "type": "object",
                    "properties": {
                        "answers": {
                            "type": "array",
                            "items": {
                                "$ref": "#/definitions/survey_categorical_answer"
                            },
                            "maxItems": 1
                        }
                    }
                }
            ]
        },
        "yes_no_notsure_item": {
            "description": "A categorical answer item where the answer is one of three categories.",
            "allOf": [
                {
                    "$ref": "#/definitions/survey_categorical_answer_item"
                },
                {
                    "type": "object",
                    "properties": {
                        "answers": {
                            "items": {
                                "enum": [
                                    {
                                        "code": 0,
                                        "value": "Yes"
                                    },
                                    {
                                        "code": 1,
                                        "value": "No"
                                    },
                                    {
                                        "code": 2,
                                        "value": "Not Sure"
                                    }        
                                ]
                            }
                        }
                    }
                }
            ]
        },
        "frequency_scale_item": {
            "description": "A categorical answer item where the answer is one of five frequency categories.",
            "allOf": [
                {
                    "$ref": "#/definitions/survey_categorical_answer_item"
                },
                {
                    "type": "object",
                    "properties": {
                        "answers": {
                            "items": {
                                "enum": [
                                    {
                                        "code": 0,
                                        "value": "Very frequently"
                                    },
                                    {
                                        "code": 1,
                                        "value": "Frequently"
                                    },
                                    {
                                        "code": 2,
                                        "value": "Occasionally"
                                    },
                                    {
                                        "code": 3,
                                        "value": "Rarely"
                                    },
                                    {
                                        "code": 4,
                                        "value": "Never"
                                    }
                                ]
                            }
                        }
                    }
                }
            ]
        }
    },
    "allOf": [
        {
            "$ref": "#/definitions/survey"
        },
        {
            "properties": {
                "items": {
                    "type": "array",
                    "minItems": 3,
                    "items": [
                        {
                            "allOf": [
                                {
                                    "$ref": "#/definitions/yes_no_notsure_item"
                                },
                                {
                                    "properties": {
                                        "question": {
                                            "enum": [
                                              {
                                                "label": "1",
                                                "text": "Have other people around you noticed that you snore? (Please select one below)"
                                              }
                                            ]
                                        }                                     
                                    }
                                }
                            ]
                        },
						{
                            "allOf": [
                                {
                                    "$ref": "#/definitions/frequency_scale_item"
                                },
                                {
                                    "properties": {
                                        "question": {
                                            "enum": [
                                              {
                                                "label": "2",
                                                "text": "In the last 6 months, have you awakened at night gasping for breath? (Please select one below)"
                                              }
                                            ]
                                        }
                                    }
                                }
                            ]
                        },
                        {
                            "allOf": [
                                {
                                    "$ref": "#/definitions/yes_no_notsure_item"
                                },
                                {
                                    "properties": {
                                        "question": {
                                            "enum": [
                                              {
                                                "label": "3",
                                                "text": "Do you suffer from high blood pressure? (Please select one below)"
                                              }
                                            ]
                                        }                                       
                                    }
                                }
                            ]
                        }
                    ],
                    "additionalItems": false
                }
            }
        }
    ]
}