{
    "items": [
        {
            "question": {
                "label": "1",
                "text": "Have other people around you noticed that you snore? (Please select one below)"
            },
            "answers": [ ],
            "asked_date_time": "2019-11-05T07:24:00Z"
        },
        {
            "question": {
                "label": "2",
                "text": "In the last 6 months, have you awakened at night gasping for breath? (Please select one below)"
            },
            "answers": [ ]
        },
        {
            "question": {
                "label": "3",
                "text": "Do you suffer from high blood pressure? (Please select one below)"
            },
            "answers": [ ]
        }
    ],
    "delivery_details": {
        "start_date_time": "2019-11-05T07:24:00Z",
        "end_date_time": "2019-11-05T07:24:55Z",
        "end_status": "missed"
    }
}