{
    "ambient_sound": {
        "value": 90,
        "unit": "dBA"
    },
    "effective_time_frame": {
        "time_interval": {
            "start_date_time": "2019-02-05T06:00:00Z",
            "end_date_time": "2019-02-06T06:00:00Z"
        }
    },
    "descriptive_statistic": "maximum"
}
