{
    "ambient_light": [
        {
            "wavelength": {
                "value": 450,
                "unit": "nm"
            },
            "intensity": {
                "value": 10.2,
                "unit": "lx"
            }
        }
    ],
    "effective_time_frame": {
        "time_interval": {
            "start_date_time": "2019-02-05T23:00:00Z",
            "end_date_time": "2019-02-06T06:00:00Z"
        }
    },
    "descriptive_statistic": "average"
}
